{
  "properties-order": [
    "position",
    "content",
    "top",
    "bottom",
    "left",
    "right",
    "display",
    "flex-flow",
    "flex-wrap",
    "fles-direction",
    "align-items",
    "justify-content",
    "flex",
    "flex-basis",
    "flex-grow",
    "flex-shrink",
    "order",
    "width",
    "min-width",
    "max-width",
    "height",
    "min-height",
    "max-height",
    "margin",
    "margin-top",
    "margin-right",
    "margin-bottom",
    "margin-left",
    "padding",
    "padding-top",
    "padding-right",
    "padding-bottom",
    "padding-left",
    "font-family",
    "font-variation-settings",
    "font-size",
    "font-style",
    "font-weight",
    "font-variant",
    "letter-spacing",
    "line-height",
    "list-style-type",
    "text-align",
    "text-decoration",
    "text-transform",
    "color",
    "background",
    "background-clip",
    "background-color",
    "background-image",
    "background-repeat",
    "background-size",
    "background-position",
    "border",
    "border-radius",
    "object-fit",
    "object-position",
    "vertical-align",
    "opacity",
    "overflow",
    "cursor",
    "touch-action",
    "user-select",
    "animation-name",
    "animation-duration",
    "animation-delay",
    "animation-timing-function",
    "animation-fill-mode",
    "transform",
    "transition"
  ]
}